…
``` r
listing_df$host_id <- factor(listing_df$host_id)
```

``` r
host_apartment_count <- listing_df %>%  group_by(listing_df$host_id) %>% count(listing_df$host_id)
host_apartment_count$n <- factor(host_apartment_count$n)
host_apartment_count <- host_apartment_count[order(host_apartment_count$n, decreasing = TRUE),]
host_df_toplot <- head(host_apartment_count,100)
host_df_toplot$n <- as.numeric(levels(host_df_toplot$n))[host_df_toplot$n]
host_df_toplot
```

    ## # A tibble: 100 x 2
    ## # Groups:   listing_df$host_id [100]
    ##    `listing_df$host_id`     n
    ##    <fct>                <dbl>
    ##  1 2288803                155
    ##  2 2667370                139
    ##  3 12984381                91
    ##  4 3972699                 80
    ##  5 3943828                 65
    ##  6 21630783                65
    ##  7 39922748                64
    ##  8 789620                  60
    ##  9 11593703                56
    ## 10 3971743                 55
    ## # ... with 90 more rows

``` r
df_host_to_plot <- host_apartment_count %>%  group_by(host_apartment_count$n) %>% count(host_apartment_count$n )
df_host_to_plot$n <- as.factor(df_host_to_plot$n)
df_host_to_plot$n <- as.numeric(levels(df_host_to_plot$n))[df_host_to_plot$n]
df_host_to_plot$`host_apartment_count$n` <- as.numeric(levels(df_host_to_plot$`host_apartment_count$n`))[df_host_to_plot$`host_apartment_count$n`]
df_host_to_plot
```

    ## # A tibble: 53 x 2
    ## # Groups:   host_apartment_count$n [53]
    ##    `host_apartment_count$n`     n
    ##                       <dbl> <dbl>
    ##  1                        1 41562
    ##  2                        2  2492
    ##  3                        3   404
    ##  4                        4   125
    ##  5                        5    61
    ##  6                        6    35
    ##  7                        7    23
    ##  8                        8    22
    ##  9                        9    15
    ## 10                       10     9
    ## # ... with 43 more rows
…
